[
  { "idPenyakit": "P01", "namaPenyakit": "Ulkus Kornea" },
  { "idPenyakit": "P02", "namaPenyakit": "Keratokonus" },
  { "idPenyakit": "P03", "namaPenyakit": "Kalazion" },
  { "idPenyakit": "P04", "namaPenyakit": "Blefaritis" },
  { "idPenyakit": "P05", "namaPenyakit": "Hordeolum" },
  { "idPenyakit": "P06", "namaPenyakit": "Konjungtivitis" },
  { "idPenyakit": "P07", "namaPenyakit": "Trakoma" },
  { "idPenyakit": "P08", "namaPenyakit": "Ablasio Retina" },
  { "idPenyakit": "P09", "namaPenyakit": "Retinopati Diabetikum" },
  { "idPenyakit": "P10", "namaPenyakit": "Glaukoma" },
  { "idPenyakit": "P11", "namaPenyakit": "Katarak" },
  { "idPenyakit": "P12", "namaPenyakit": "Uveitis" },
  { "idPenyakit": "P13", "namaPenyakit": "Selulitis Orbitalis" },
  { "idPenyakit": "P14", "namaPenyakit": "Eksoftalmus" },
  { "idPenyakit": "P15", "namaPenyakit": "Keratitis Pungtata" },
  { "idPenyakit": "P16", "namaPenyakit": "Superfisialis" },
  { "idPenyakit": "P17", "namaPenyakit": "Alergi Mata Merah" },
  { "idPenyakit": "P18", "namaPenyakit": "Endoftalmitis" },
  { "idPenyakit": "P19", "namaPenyakit": "Trombosis Sinus" },
  { "idPenyakit": "P20", "namaPenyakit": "Kavernosus" }
]
